%!PS-Adobe-3.0 EPSF-3.0
%%Creator: cairo 1.14.2 (http://cairographics.org)
%%CreationDate: Tue Feb 27 07:19:52 2018
%%Pages: 1
%%DocumentData: Clean7Bit
%%LanguageLevel: 2
%%BoundingBox: 0 -1 410 410
%%EndComments
%%BeginProlog
save
50 dict begin
/q { gsave } bind def
/Q { grestore } bind def
/cm { 6 array astore concat } bind def
/w { setlinewidth } bind def
/J { setlinecap } bind def
/j { setlinejoin } bind def
/M { setmiterlimit } bind def
/d { setdash } bind def
/m { moveto } bind def
/l { lineto } bind def
/c { curveto } bind def
/h { closepath } bind def
/re { exch dup neg 3 1 roll 5 3 roll moveto 0 rlineto
      0 exch rlineto 0 rlineto closepath } bind def
/S { stroke } bind def
/f { fill } bind def
/f* { eofill } bind def
/n { newpath } bind def
/W { clip } bind def
/W* { eoclip } bind def
/BT { } bind def
/ET { } bind def
/pdfmark where { pop globaldict /?pdfmark /exec load put }
    { globaldict begin /?pdfmark /pop load def /pdfmark
    /cleartomark load def end } ifelse
/BDC { mark 3 1 roll /BDC pdfmark } bind def
/EMC { mark /EMC pdfmark } bind def
/cairo_store_point { /cairo_point_y exch def /cairo_point_x exch def } def
/Tj { show currentpoint cairo_store_point } bind def
/TJ {
  {
    dup
    userType /stringtype eq
    { show } { -0.001 mul 0 cairo_font_matrix dtransform rmoveto } ifelse
  } forall
  currentpoint cairo_store_point
} bind def
/cairo_selectfont { cairo_font_matrix aload pop pop pop 0 0 6 array astore
    cairo_font exch selectfont cairo_point_x cairo_point_y moveto } bind def
/Tf { pop /cairo_font exch def /cairo_font_matrix where
      { pop cairo_selectfont } if } bind def
/Td { matrix translate cairo_font_matrix matrix concatmatrix dup
      /cairo_font_matrix exch def dup 4 get exch 5 get cairo_store_point
      /cairo_font where { pop cairo_selectfont } if } bind def
/Tm { 2 copy 8 2 roll 6 array astore /cairo_font_matrix exch def
      cairo_store_point /cairo_font where { pop cairo_selectfont } if } bind def
/g { setgray } bind def
/rg { setrgbcolor } bind def
/d1 { setcachedevice } bind def
%%EndProlog
%%BeginSetup
%%EndSetup
%%Page: 1 1
%%BeginPageSetup
%%PageBoundingBox: 0 -1 410 410
%%EndPageSetup
q 0 -1 410 411 rectclip q
0 g
204.801 409.6 m 91.875 409.6 0 317.725 0 204.799 c 0 91.873 91.875 -0.002
 204.801 -0.002 c 317.727 -0.002 409.602 91.873 409.602 204.799 c 409.602
 317.725 317.727 409.6 204.801 409.6 c h
204.801 13.655 m 99.398 13.655 13.652 99.401 13.652 204.799 c 13.652 310.202
 99.398 395.948 204.801 395.948 c 310.199 395.948 395.945 310.202 395.945
 204.799 c 395.945 99.401 310.199 13.655 204.801 13.655 c h
204.801 13.655 m f
309.262 271.127 m 174.199 139.362 l 100.461 214.995 l 97.832 217.69 93.508
 217.741 90.805 215.112 c 88.105 212.483 88.055 208.159 90.688 205.459 c
 169.191 124.94 l 170.453 123.643 172.188 122.901 173.992 122.877 c 174.078
 122.877 l 175.859 122.877 177.574 123.577 178.844 124.819 c 318.793 261.354
 l 321.492 263.987 321.547 268.311 318.91 271.006 c 316.281 273.709 311.961
 273.748 309.262 271.127 c h
309.262 271.127 m f
Q Q
showpage
%%Trailer
end restore
%%EOF
