%!PS-Adobe-3.0 EPSF-3.0
%%Creator: cairo 1.14.2 (http://cairographics.org)
%%CreationDate: Tue Feb 27 07:19:52 2018
%%Pages: 1
%%DocumentData: Clean7Bit
%%LanguageLevel: 2
%%BoundingBox: 0 -1 114 114
%%EndComments
%%BeginProlog
save
50 dict begin
/q { gsave } bind def
/Q { grestore } bind def
/cm { 6 array astore concat } bind def
/w { setlinewidth } bind def
/J { setlinecap } bind def
/j { setlinejoin } bind def
/M { setmiterlimit } bind def
/d { setdash } bind def
/m { moveto } bind def
/l { lineto } bind def
/c { curveto } bind def
/h { closepath } bind def
/re { exch dup neg 3 1 roll 5 3 roll moveto 0 rlineto
      0 exch rlineto 0 rlineto closepath } bind def
/S { stroke } bind def
/f { fill } bind def
/f* { eofill } bind def
/n { newpath } bind def
/W { clip } bind def
/W* { eoclip } bind def
/BT { } bind def
/ET { } bind def
/pdfmark where { pop globaldict /?pdfmark /exec load put }
    { globaldict begin /?pdfmark /pop load def /pdfmark
    /cleartomark load def end } ifelse
/BDC { mark 3 1 roll /BDC pdfmark } bind def
/EMC { mark /EMC pdfmark } bind def
/cairo_store_point { /cairo_point_y exch def /cairo_point_x exch def } def
/Tj { show currentpoint cairo_store_point } bind def
/TJ {
  {
    dup
    userType /stringtype eq
    { show } { -0.001 mul 0 cairo_font_matrix dtransform rmoveto } ifelse
  } forall
  currentpoint cairo_store_point
} bind def
/cairo_selectfont { cairo_font_matrix aload pop pop pop 0 0 6 array astore
    cairo_font exch selectfont cairo_point_x cairo_point_y moveto } bind def
/Tf { pop /cairo_font exch def /cairo_font_matrix where
      { pop cairo_selectfont } if } bind def
/Td { matrix translate cairo_font_matrix matrix concatmatrix dup
      /cairo_font_matrix exch def dup 4 get exch 5 get cairo_store_point
      /cairo_font where { pop cairo_selectfont } if } bind def
/Tm { 2 copy 8 2 roll 6 array astore /cairo_font_matrix exch def
      cairo_store_point /cairo_font where { pop cairo_selectfont } if } bind def
/g { setgray } bind def
/rg { setrgbcolor } bind def
/d1 { setcachedevice } bind def
%%EndProlog
%%BeginSetup
%%EndSetup
%%Page: 1 1
%%BeginPageSetup
%%PageBoundingBox: 0 -1 114 114
%%EndPageSetup
q 0 -1 114 115 rectclip q
0.113725 0.113725 0.105882 rg
56.98 113.958 m 25.562 113.958 0 88.395 0 56.977 c 0 25.559 25.562 0.001
 56.98 0.001 c 88.398 0.001 113.957 25.559 113.957 56.977 c 113.957 88.395
 88.398 113.958 56.98 113.958 c h
56.98 12.001 m 32.176 12.001 12 32.176 12 56.977 c 12 81.782 32.176 101.958
 56.98 101.958 c 81.781 101.958 101.957 81.782 101.957 56.977 c 101.957
32.176 81.781 12.001 56.98 12.001 c h
56.98 12.001 m f
80.738 56.344 m 57.379 56.344 l 57.379 76.579 l 57.379 79.891 54.695 82.579
 51.379 82.579 c 48.066 82.579 45.379 79.891 45.379 76.579 c 45.379 50.344
 l 45.379 47.032 48.066 44.344 51.379 44.344 c 80.738 44.344 l 84.055 44.344
 86.738 47.032 86.738 50.344 c 86.738 53.661 84.051 56.344 80.738 56.344
 c h
80.738 56.344 m f
Q Q
showpage
%%Trailer
end restore
%%EOF
