%!PS-Adobe-3.0 EPSF-3.0
%%Creator: cairo 1.14.2 (http://cairographics.org)
%%CreationDate: Tue Feb 27 07:19:52 2018
%%Pages: 1
%%DocumentData: Clean7Bit
%%LanguageLevel: 2
%%BoundingBox: 0 13 187 173
%%EndComments
%%BeginProlog
save
50 dict begin
/q { gsave } bind def
/Q { grestore } bind def
/cm { 6 array astore concat } bind def
/w { setlinewidth } bind def
/J { setlinecap } bind def
/j { setlinejoin } bind def
/M { setmiterlimit } bind def
/d { setdash } bind def
/m { moveto } bind def
/l { lineto } bind def
/c { curveto } bind def
/h { closepath } bind def
/re { exch dup neg 3 1 roll 5 3 roll moveto 0 rlineto
      0 exch rlineto 0 rlineto closepath } bind def
/S { stroke } bind def
/f { fill } bind def
/f* { eofill } bind def
/n { newpath } bind def
/W { clip } bind def
/W* { eoclip } bind def
/BT { } bind def
/ET { } bind def
/pdfmark where { pop globaldict /?pdfmark /exec load put }
    { globaldict begin /?pdfmark /pop load def /pdfmark
    /cleartomark load def end } ifelse
/BDC { mark 3 1 roll /BDC pdfmark } bind def
/EMC { mark /EMC pdfmark } bind def
/cairo_store_point { /cairo_point_y exch def /cairo_point_x exch def } def
/Tj { show currentpoint cairo_store_point } bind def
/TJ {
  {
    dup
    userType /stringtype eq
    { show } { -0.001 mul 0 cairo_font_matrix dtransform rmoveto } ifelse
  } forall
  currentpoint cairo_store_point
} bind def
/cairo_selectfont { cairo_font_matrix aload pop pop pop 0 0 6 array astore
    cairo_font exch selectfont cairo_point_x cairo_point_y moveto } bind def
/Tf { pop /cairo_font exch def /cairo_font_matrix where
      { pop cairo_selectfont } if } bind def
/Td { matrix translate cairo_font_matrix matrix concatmatrix dup
      /cairo_font_matrix exch def dup 4 get exch 5 get cairo_store_point
      /cairo_font where { pop cairo_selectfont } if } bind def
/Tm { 2 copy 8 2 roll 6 array astore /cairo_font_matrix exch def
      cairo_store_point /cairo_font where { pop cairo_selectfont } if } bind def
/g { setgray } bind def
/rg { setrgbcolor } bind def
/d1 { setcachedevice } bind def
%%EndProlog
%%BeginSetup
%%EndSetup
%%Page: 1 1
%%BeginPageSetup
%%PageBoundingBox: 0 13 187 173
%%EndPageSetup
q 0 13 187 160 rectclip q
0.113725 0.113725 0.105882 rg
181.426 91.237 m 105.379 167.283 l 102.062 170.6 97.648 172.428 92.957
172.428 c 88.266 172.428 83.855 170.6 80.539 167.283 c 77.523 164.268 l
75.801 165.987 l 72.48 169.307 68.07 171.131 63.379 171.131 c 58.688 171.131
 54.277 169.307 50.961 165.987 c 41.734 156.764 l 20.359 156.764 l 17.047
 156.764 14.359 154.076 14.359 150.764 c 14.359 129.389 l 5.137 120.166
l -1.711 113.315 -1.711 102.174 5.137 95.326 c 81.18 19.28 l 84.5 15.963
 88.91 14.135 93.602 14.135 c 98.293 14.135 102.703 15.963 106.023 19.28
 c 109.039 22.295 l 110.762 20.573 l 114.078 17.256 118.488 15.428 123.18
 15.428 c 127.871 15.428 132.285 17.256 135.602 20.573 c 181.426 66.397
l 188.273 73.244 188.273 84.389 181.426 91.237 c h
93.602 26.135 m 92.117 26.135 90.719 26.713 89.668 27.764 c 13.621 103.811
 l 11.453 105.979 11.453 109.51 13.621 111.682 c 24.602 122.662 l 25.73
123.787 26.359 125.315 26.359 126.905 c 26.359 144.764 l 44.219 144.764
l 45.812 144.764 47.336 145.397 48.461 146.522 c 59.445 157.502 l 60.496
 158.553 61.895 159.135 63.379 159.135 c 64.867 159.135 66.262 158.557 67.312
 157.502 c 73.273 151.541 l 73.277 151.541 73.277 151.541 73.277 151.537
 c 73.277 151.537 73.281 151.537 73.281 151.537 c 143.359 81.455 l 144.41
 80.405 144.992 79.006 144.992 77.522 c 144.992 76.033 144.41 74.639 143.359
 73.588 c 97.539 27.764 l 96.488 26.713 95.09 26.135 93.602 26.135 c h
172.938 74.881 m 127.117 29.057 l 126.066 28.006 124.668 27.428 123.18
27.428 c 121.695 27.428 120.297 28.006 119.246 29.057 c 117.523 30.78 l
151.844 65.1 l 155.164 68.42 156.992 72.83 156.992 77.522 c 156.992 82.213
 155.164 86.623 151.844 89.944 c 86.008 155.783 l 89.023 158.799 l 91.191
 160.967 94.723 160.967 96.895 158.799 c 172.938 82.752 l 175.109 80.58
175.109 77.053 172.938 74.881 c h
172.938 74.881 m f
59.891 142.108 m 28.938 111.158 l 26.594 108.815 26.594 105.014 28.938
102.67 c 30.109 101.502 31.645 100.916 33.18 100.916 c 34.715 100.916 36.25
 101.498 37.422 102.67 c 68.375 133.623 l 70.719 135.967 70.719 139.764
68.375 142.108 c 66.031 144.451 62.23 144.451 59.891 142.108 c h
59.891 142.108 m f
Q Q
showpage
%%Trailer
end restore
%%EOF
