%!PS-Adobe-3.0 EPSF-3.0
%%Creator: cairo 1.14.2 (http://cairographics.org)
%%CreationDate: Tue Feb 27 07:19:52 2018
%%Pages: 1
%%DocumentData: Clean7Bit
%%LanguageLevel: 2
%%BoundingBox: 0 -1 135 135
%%EndComments
%%BeginProlog
save
50 dict begin
/q { gsave } bind def
/Q { grestore } bind def
/cm { 6 array astore concat } bind def
/w { setlinewidth } bind def
/J { setlinecap } bind def
/j { setlinejoin } bind def
/M { setmiterlimit } bind def
/d { setdash } bind def
/m { moveto } bind def
/l { lineto } bind def
/c { curveto } bind def
/h { closepath } bind def
/re { exch dup neg 3 1 roll 5 3 roll moveto 0 rlineto
      0 exch rlineto 0 rlineto closepath } bind def
/S { stroke } bind def
/f { fill } bind def
/f* { eofill } bind def
/n { newpath } bind def
/W { clip } bind def
/W* { eoclip } bind def
/BT { } bind def
/ET { } bind def
/pdfmark where { pop globaldict /?pdfmark /exec load put }
    { globaldict begin /?pdfmark /pop load def /pdfmark
    /cleartomark load def end } ifelse
/BDC { mark 3 1 roll /BDC pdfmark } bind def
/EMC { mark /EMC pdfmark } bind def
/cairo_store_point { /cairo_point_y exch def /cairo_point_x exch def } def
/Tj { show currentpoint cairo_store_point } bind def
/TJ {
  {
    dup
    userType /stringtype eq
    { show } { -0.001 mul 0 cairo_font_matrix dtransform rmoveto } ifelse
  } forall
  currentpoint cairo_store_point
} bind def
/cairo_selectfont { cairo_font_matrix aload pop pop pop 0 0 6 array astore
    cairo_font exch selectfont cairo_point_x cairo_point_y moveto } bind def
/Tf { pop /cairo_font exch def /cairo_font_matrix where
      { pop cairo_selectfont } if } bind def
/Td { matrix translate cairo_font_matrix matrix concatmatrix dup
      /cairo_font_matrix exch def dup 4 get exch 5 get cairo_store_point
      /cairo_font where { pop cairo_selectfont } if } bind def
/Tm { 2 copy 8 2 roll 6 array astore /cairo_font_matrix exch def
      cairo_store_point /cairo_font where { pop cairo_selectfont } if } bind def
/g { setgray } bind def
/rg { setrgbcolor } bind def
/d1 { setcachedevice } bind def
%%EndProlog
%%BeginSetup
%%EndSetup
%%Page: 1 1
%%BeginPageSetup
%%PageBoundingBox: 0 -1 135 135
%%EndPageSetup
q 0 -1 135 136 rectclip q
0.113725 0.113725 0.105882 rg
67.246 94.083 m 52.445 94.083 40.406 82.044 40.406 67.243 c 40.406 52.447
 52.445 40.404 67.246 40.404 c 82.043 40.404 94.086 52.447 94.086 67.243
 c 94.086 82.044 82.043 94.083 67.246 94.083 c h
67.246 52.404 m 59.062 52.404 52.406 59.064 52.406 67.243 c 52.406 75.427
 59.062 82.083 67.246 82.083 c 75.43 82.083 82.086 75.427 82.086 67.243
c 82.086 59.064 75.426 52.404 67.246 52.404 c h
67.246 52.404 m f
125.234 74.599 m 124.809 74.79 l 123.242 75.486 122.836 76.865 122.734
77.423 c 122.629 77.986 122.523 79.419 123.738 80.626 c 124.07 80.958 l
128.641 85.497 129.961 91.997 127.52 97.923 c 125.086 103.826 119.473 107.638
 113.215 107.638 c 112.098 107.638 110.965 107.517 109.84 107.279 c 109.379
 107.181 l 108.055 106.9 106.746 107.365 105.883 108.38 c 105.484 108.849
 104.852 109.845 105.082 111.279 c 105.156 111.74 l 105.902 116.353 104.688
 120.806 101.73 124.279 c 98.754 127.775 94.242 129.861 89.656 129.861 c
 85.27 129.861 81.191 128.017 78.172 124.669 c 77.859 124.322 l 76.973 123.337
 75.926 123.13 75.203 123.13 c 74.68 123.13 72.902 123.271 71.973 125.111
 c 71.762 125.525 l 69.051 130.892 63.875 134.095 57.922 134.095 c 49.742
 134.095 43.184 128.22 42.332 120.134 c 42.281 119.658 l 42.062 117.56 40.27
 116.431 38.699 116.431 c 38.137 116.431 37.586 116.568 37.062 116.833 c
 36.645 117.052 l 34.355 118.228 31.938 118.822 29.465 118.822 c 23.953
118.822 18.773 115.786 15.953 110.9 c 13.164 106.076 13.188 100.275 16.008
 95.384 c 16.242 94.974 l 17.098 93.493 16.617 92.138 16.371 91.622 c 16.125
 91.111 15.367 89.884 13.676 89.622 c 13.211 89.552 l 6.316 88.482 1.062
 83.118 0.141 76.201 c -0.781 69.286 2.879 62.732 9.254 59.892 c 9.684 59.701
 l 11.246 59.001 11.652 57.622 11.758 57.064 c 11.859 56.501 11.969 55.068
 10.754 53.861 c 10.422 53.533 l 5.848 48.99 4.527 42.49 6.973 36.564 c
9.406 30.661 15.02 26.849 21.273 26.849 c 22.391 26.849 23.527 26.97 24.652
 27.208 c 25.109 27.306 l 26.43 27.587 27.742 27.126 28.605 26.111 c 29.004
 25.642 29.637 24.642 29.406 23.212 c 29.332 22.751 l 28.586 18.134 29.805
 13.681 32.758 10.212 c 35.734 6.716 40.25 4.626 44.836 4.626 c 49.223 4.626
 53.301 6.47 56.316 9.822 c 56.633 10.169 l 57.52 11.154 58.566 11.361 59.285
 11.361 c 59.809 11.361 61.59 11.216 62.516 9.38 c 62.727 8.962 l 65.438
 3.599 70.613 0.396 76.57 0.396 c 84.75 0.396 91.305 6.271 92.16 14.365
c 92.207 14.829 l 92.43 16.927 94.223 18.06 95.793 18.06 c 96.352 18.06
96.902 17.923 97.426 17.654 c 97.848 17.439 l 100.133 16.263 102.551 15.665
 105.027 15.665 c 110.539 15.665 115.715 18.701 118.539 23.587 c 121.324
 28.415 121.305 34.216 118.484 39.107 c 118.246 39.513 l 117.395 40.997
117.875 42.353 118.121 42.865 c 118.367 43.38 119.121 44.603 120.812 44.865
 c 121.277 44.939 l 128.172 46.009 133.426 51.372 134.348 58.286 c 135.27
 65.204 131.609 71.759 125.234 74.599 c h
122.453 59.876 m 122.348 59.076 121.84 57.169 119.438 56.794 c 118.973
56.724 l 113.887 55.935 109.523 52.693 107.297 48.052 c 105.074 43.408 105.281
 37.978 107.852 33.517 c 108.09 33.111 l 108.781 31.908 108.801 30.724 108.145
 29.587 c 107.469 28.419 106.246 27.665 105.027 27.665 c 104.477 27.665
103.906 27.818 103.332 28.111 c 102.91 28.326 l 100.672 29.478 98.277 30.06
 95.793 30.06 c 87.785 30.06 81.113 24.052 80.273 16.087 c 80.223 15.622
 l 79.957 13.076 77.801 12.396 76.566 12.392 c 75.598 12.392 74.266 12.736
 73.438 14.38 c 73.223 14.794 l 70.555 20.079 65.215 23.357 59.285 23.357
 c 54.887 23.357 50.668 21.478 47.715 18.201 c 47.402 17.849 l 46.668 17.036
 45.805 16.626 44.832 16.626 c 43.734 16.626 42.609 17.15 41.895 17.99 c
 41.238 18.759 40.996 19.716 41.176 20.833 c 41.254 21.298 l 41.984 25.818
 40.703 30.408 37.742 33.888 c 34.766 37.384 30.445 39.392 25.891 39.392
 c 24.797 39.392 23.699 39.275 22.617 39.044 c 22.16 38.947 l 21.852 38.884
 21.555 38.849 21.273 38.849 c 19.602 38.849 18.523 40.033 18.066 41.138
 c 17.73 41.951 17.387 43.536 18.879 45.021 c 19.211 45.349 l 22.863 48.978
 24.488 54.165 23.559 59.228 c 22.629 64.294 19.27 68.564 14.566 70.661
c 14.137 70.853 l 11.922 71.841 11.93 73.814 12.035 74.615 c 12.145 75.415
 12.652 77.322 15.055 77.693 c 15.516 77.763 l 20.602 78.552 24.965 81.794
 27.191 86.439 c 29.414 91.079 29.207 96.513 26.637 100.97 c 26.398 101.38
 l 25.707 102.579 25.688 103.767 26.344 104.9 c 27.02 106.068 28.242 106.822
 29.461 106.822 c 30.012 106.822 30.582 106.669 31.156 106.376 c 31.578
106.161 l 33.816 105.013 36.211 104.427 38.695 104.427 c 46.703 104.427
53.375 110.435 54.215 118.392 c 54.266 118.868 l 54.531 121.415 56.688 122.095
 57.918 122.095 c 58.891 122.095 60.223 121.751 61.051 120.111 c 61.262
119.693 l 63.934 114.411 69.273 111.13 75.199 111.13 c 79.602 111.13 83.816
 113.009 86.773 116.29 c 87.086 116.638 l 87.82 117.451 88.684 117.861 89.656
 117.861 c 90.75 117.861 91.875 117.341 92.594 116.501 c 93.25 115.728 93.492
 114.771 93.309 113.654 c 93.234 113.193 l 92.504 108.669 93.781 104.083
 96.746 100.603 c 99.723 97.103 104.043 95.099 108.598 95.099 c 109.688
95.099 110.789 95.216 111.867 95.443 c 112.328 95.544 l 112.637 95.607 112.934
 95.642 113.215 95.642 c 114.883 95.642 115.965 94.458 116.422 93.353 c
116.758 92.536 117.098 90.951 115.609 89.47 c 115.277 89.142 l 111.625 85.513
 110 80.322 110.93 75.259 c 111.859 70.197 115.219 65.923 119.922 63.829
 c 120.352 63.638 l 122.57 62.65 122.562 60.677 122.453 59.876 c h
122.453 59.876 m f
Q Q
showpage
%%Trailer
end restore
%%EOF
