%!PS-Adobe-3.0 EPSF-3.0
%%Creator: cairo 1.14.2 (http://cairographics.org)
%%CreationDate: Tue Feb 27 07:19:52 2018
%%Pages: 1
%%DocumentData: Clean7Bit
%%LanguageLevel: 2
%%BoundingBox: 0 11 116 104
%%EndComments
%%BeginProlog
save
50 dict begin
/q { gsave } bind def
/Q { grestore } bind def
/cm { 6 array astore concat } bind def
/w { setlinewidth } bind def
/J { setlinecap } bind def
/j { setlinejoin } bind def
/M { setmiterlimit } bind def
/d { setdash } bind def
/m { moveto } bind def
/l { lineto } bind def
/c { curveto } bind def
/h { closepath } bind def
/re { exch dup neg 3 1 roll 5 3 roll moveto 0 rlineto
      0 exch rlineto 0 rlineto closepath } bind def
/S { stroke } bind def
/f { fill } bind def
/f* { eofill } bind def
/n { newpath } bind def
/W { clip } bind def
/W* { eoclip } bind def
/BT { } bind def
/ET { } bind def
/pdfmark where { pop globaldict /?pdfmark /exec load put }
    { globaldict begin /?pdfmark /pop load def /pdfmark
    /cleartomark load def end } ifelse
/BDC { mark 3 1 roll /BDC pdfmark } bind def
/EMC { mark /EMC pdfmark } bind def
/cairo_store_point { /cairo_point_y exch def /cairo_point_x exch def } def
/Tj { show currentpoint cairo_store_point } bind def
/TJ {
  {
    dup
    userType /stringtype eq
    { show } { -0.001 mul 0 cairo_font_matrix dtransform rmoveto } ifelse
  } forall
  currentpoint cairo_store_point
} bind def
/cairo_selectfont { cairo_font_matrix aload pop pop pop 0 0 6 array astore
    cairo_font exch selectfont cairo_point_x cairo_point_y moveto } bind def
/Tf { pop /cairo_font exch def /cairo_font_matrix where
      { pop cairo_selectfont } if } bind def
/Td { matrix translate cairo_font_matrix matrix concatmatrix dup
      /cairo_font_matrix exch def dup 4 get exch 5 get cairo_store_point
      /cairo_font where { pop cairo_selectfont } if } bind def
/Tm { 2 copy 8 2 roll 6 array astore /cairo_font_matrix exch def
      cairo_store_point /cairo_font where { pop cairo_selectfont } if } bind def
/g { setgray } bind def
/rg { setrgbcolor } bind def
/d1 { setcachedevice } bind def
%%EndProlog
%%BeginSetup
%%EndSetup
%%Page: 1 1
%%BeginPageSetup
%%PageBoundingBox: 0 11 116 104
%%EndPageSetup
q 0 11 116 93 rectclip q
0.113725 0.113725 0.105882 rg
115.938 85.744 m 115.938 90.513 114.082 94.998 110.707 98.369 c 103.895
 105.181 92.91 105.31 85.914 98.783 c 85.758 98.658 85.602 98.517 85.457
 98.369 c 42.555 55.47 l 30.484 67.541 l 23.52 74.502 12.191 74.502 5.23
 67.541 c 1.855 64.17 0 59.685 0 54.916 c 0 50.146 1.855 45.662 5.23 42.287
 c 29.898 17.619 l 29.906 17.611 29.914 17.599 29.926 17.588 c 33.301 14.217
 37.781 12.357 42.555 12.357 c 46.727 12.357 50.684 13.779 53.867 16.396
 c 54.305 16.76 54.73 17.146 55.141 17.552 c 55.152 17.564 55.168 17.576
 55.18 17.588 c 110.711 73.115 l 110.777 73.185 110.836 73.26 110.898 73.326
 c 114.145 76.674 115.938 81.068 115.938 85.744 c h
13.715 59.056 m 16 61.338 19.715 61.338 22 59.056 c 38.312 42.74 l 38.461
 42.595 38.613 42.459 38.77 42.33 c 39.871 41.431 41.215 40.982 42.559 40.982
 c 43.898 40.982 45.242 41.431 46.344 42.33 c 46.5 42.455 46.652 42.595
46.801 42.74 c 93.941 89.885 l 93.945 89.885 93.945 89.885 93.945 89.888
 c 96.23 92.166 99.941 92.166 102.227 89.885 c 103.332 88.779 103.941 87.306
 103.941 85.744 c 103.941 84.181 103.332 82.713 102.23 81.607 c 102.23 81.603
 102.227 81.603 102.227 81.603 c 46.695 26.076 l 45.59 24.97 44.121 24.361
 42.555 24.361 c 40.992 24.361 39.52 24.97 38.414 26.076 c 13.715 50.775
 l 12.609 51.881 12 53.349 12 54.916 c 12 56.478 12.609 57.947 13.715 59.056
 c h
13.715 59.056 m f
Q Q
showpage
%%Trailer
end restore
%%EOF
