%!PS-Adobe-3.0 EPSF-3.0
%%Creator: cairo 1.14.2 (http://cairographics.org)
%%CreationDate: Tue Feb 27 07:19:52 2018
%%Pages: 1
%%DocumentData: Clean7Bit
%%LanguageLevel: 2
%%BoundingBox: 0 12 148 136
%%EndComments
%%BeginProlog
save
50 dict begin
/q { gsave } bind def
/Q { grestore } bind def
/cm { 6 array astore concat } bind def
/w { setlinewidth } bind def
/J { setlinecap } bind def
/j { setlinejoin } bind def
/M { setmiterlimit } bind def
/d { setdash } bind def
/m { moveto } bind def
/l { lineto } bind def
/c { curveto } bind def
/h { closepath } bind def
/re { exch dup neg 3 1 roll 5 3 roll moveto 0 rlineto
      0 exch rlineto 0 rlineto closepath } bind def
/S { stroke } bind def
/f { fill } bind def
/f* { eofill } bind def
/n { newpath } bind def
/W { clip } bind def
/W* { eoclip } bind def
/BT { } bind def
/ET { } bind def
/pdfmark where { pop globaldict /?pdfmark /exec load put }
    { globaldict begin /?pdfmark /pop load def /pdfmark
    /cleartomark load def end } ifelse
/BDC { mark 3 1 roll /BDC pdfmark } bind def
/EMC { mark /EMC pdfmark } bind def
/cairo_store_point { /cairo_point_y exch def /cairo_point_x exch def } def
/Tj { show currentpoint cairo_store_point } bind def
/TJ {
  {
    dup
    userType /stringtype eq
    { show } { -0.001 mul 0 cairo_font_matrix dtransform rmoveto } ifelse
  } forall
  currentpoint cairo_store_point
} bind def
/cairo_selectfont { cairo_font_matrix aload pop pop pop 0 0 6 array astore
    cairo_font exch selectfont cairo_point_x cairo_point_y moveto } bind def
/Tf { pop /cairo_font exch def /cairo_font_matrix where
      { pop cairo_selectfont } if } bind def
/Td { matrix translate cairo_font_matrix matrix concatmatrix dup
      /cairo_font_matrix exch def dup 4 get exch 5 get cairo_store_point
      /cairo_font where { pop cairo_selectfont } if } bind def
/Tm { 2 copy 8 2 roll 6 array astore /cairo_font_matrix exch def
      cairo_store_point /cairo_font where { pop cairo_selectfont } if } bind def
/g { setgray } bind def
/rg { setrgbcolor } bind def
/d1 { setcachedevice } bind def
%%EndProlog
%%BeginSetup
%%EndSetup
%%Page: 1 1
%%BeginPageSetup
%%PageBoundingBox: 0 12 148 136
%%EndPageSetup
q 0 12 148 124 rectclip q
0.113725 0.113725 0.105882 rg
128.598 134.595 m 18.602 134.595 l 8.344 134.595 0 126.247 0 115.989 c
0 45.372 l 0 35.114 8.344 26.77 18.602 26.77 c 71.113 26.77 l 80.336 17.548
 l 83.523 14.364 87.762 12.606 92.27 12.606 c 96.773 12.606 101.012 14.36
 104.199 17.548 c 113.422 26.77 l 128.598 26.77 l 138.855 26.77 147.199
35.114 147.199 45.372 c 147.199 115.989 l 147.199 126.247 138.855 134.595
 128.598 134.595 c h
135.199 45.372 m 135.199 41.731 132.238 38.77 128.598 38.77 c 110.934 38.77
 l 109.344 38.77 107.82 38.137 106.691 37.012 c 95.715 26.036 l 94.793 25.114
 93.57 24.606 92.266 24.606 c 90.965 24.606 89.742 25.114 88.82 26.032 c
 77.84 37.012 l 76.715 38.137 75.191 38.77 73.598 38.77 c 18.602 38.77 l
 14.961 38.77 12 41.731 12 45.372 c 12 115.989 l 12 119.63 14.961 122.595
 18.602 122.595 c 128.598 122.595 l 132.238 122.595 135.199 119.63 135.199
 115.989 c h
135.199 45.372 m f
117.867 108.282 m 29.332 108.282 l 26.02 108.282 23.332 105.595 23.332
102.282 c 23.332 98.966 26.02 96.282 29.332 96.282 c 117.867 96.282 l 121.18
 96.282 123.867 98.966 123.867 102.282 c 123.867 105.595 121.18 108.282
117.867 108.282 c h
117.867 108.282 m f
117.867 87.216 m 29.332 87.216 l 26.02 87.216 23.332 84.528 23.332 81.216
 c 23.332 77.899 26.02 75.216 29.332 75.216 c 117.867 75.216 l 121.18 75.216
 123.867 77.899 123.867 81.216 c 123.867 84.528 121.18 87.216 117.867 87.216
 c h
117.867 87.216 m f
117.867 66.149 m 29.332 66.149 l 26.02 66.149 23.332 63.462 23.332 60.149
 c 23.332 56.833 26.02 54.149 29.332 54.149 c 117.867 54.149 l 121.18 54.149
 123.867 56.833 123.867 60.149 c 123.867 63.462 121.18 66.149 117.867 66.149
 c h
117.867 66.149 m f
Q Q
showpage
%%Trailer
end restore
%%EOF
