%!PS-Adobe-3.0 EPSF-3.0
%%Creator: cairo 1.14.2 (http://cairographics.org)
%%CreationDate: Tue Feb 27 07:19:52 2018
%%Pages: 1
%%DocumentData: Clean7Bit
%%LanguageLevel: 2
%%BoundingBox: 0 -1 410 410
%%EndComments
%%BeginProlog
save
50 dict begin
/q { gsave } bind def
/Q { grestore } bind def
/cm { 6 array astore concat } bind def
/w { setlinewidth } bind def
/J { setlinecap } bind def
/j { setlinejoin } bind def
/M { setmiterlimit } bind def
/d { setdash } bind def
/m { moveto } bind def
/l { lineto } bind def
/c { curveto } bind def
/h { closepath } bind def
/re { exch dup neg 3 1 roll 5 3 roll moveto 0 rlineto
      0 exch rlineto 0 rlineto closepath } bind def
/S { stroke } bind def
/f { fill } bind def
/f* { eofill } bind def
/n { newpath } bind def
/W { clip } bind def
/W* { eoclip } bind def
/BT { } bind def
/ET { } bind def
/pdfmark where { pop globaldict /?pdfmark /exec load put }
    { globaldict begin /?pdfmark /pop load def /pdfmark
    /cleartomark load def end } ifelse
/BDC { mark 3 1 roll /BDC pdfmark } bind def
/EMC { mark /EMC pdfmark } bind def
/cairo_store_point { /cairo_point_y exch def /cairo_point_x exch def } def
/Tj { show currentpoint cairo_store_point } bind def
/TJ {
  {
    dup
    userType /stringtype eq
    { show } { -0.001 mul 0 cairo_font_matrix dtransform rmoveto } ifelse
  } forall
  currentpoint cairo_store_point
} bind def
/cairo_selectfont { cairo_font_matrix aload pop pop pop 0 0 6 array astore
    cairo_font exch selectfont cairo_point_x cairo_point_y moveto } bind def
/Tf { pop /cairo_font exch def /cairo_font_matrix where
      { pop cairo_selectfont } if } bind def
/Td { matrix translate cairo_font_matrix matrix concatmatrix dup
      /cairo_font_matrix exch def dup 4 get exch 5 get cairo_store_point
      /cairo_font where { pop cairo_selectfont } if } bind def
/Tm { 2 copy 8 2 roll 6 array astore /cairo_font_matrix exch def
      cairo_store_point /cairo_font where { pop cairo_selectfont } if } bind def
/g { setgray } bind def
/rg { setrgbcolor } bind def
/d1 { setcachedevice } bind def
%%EndProlog
%%BeginSetup
%%EndSetup
%%Page: 1 1
%%BeginPageSetup
%%PageBoundingBox: 0 -1 410 410
%%EndPageSetup
q 0 -1 410 411 rectclip q
0 g
220.801 98.401 m 216.383 98.401 212.801 94.815 212.801 90.401 c 212.801
 85.983 216.383 82.401 220.801 82.401 c 225.215 82.401 228.801 85.983 228.801
 90.401 c 228.801 94.815 225.215 98.401 220.801 98.401 c h
220.801 98.401 m f
385.602 244.799 m 324.801 244.799 l 324.801 385.6 l 324.801 398.834 314.035
 409.6 300.801 409.6 c 24 409.6 l 10.766 409.6 0 398.834 0 385.6 c 0 188.799
 l 0 175.565 10.766 164.799 24 164.799 c 80 164.799 l 80 23.998 l 80 10.768
 90.766 -0.002 104 -0.002 c 385.602 -0.002 l 398.832 -0.002 409.602 10.768
 409.602 23.998 c 409.602 220.799 l 409.602 234.034 398.832 244.799 385.602
 244.799 c h
81.375 228.799 m 40 228.799 l 35.582 228.799 32 225.217 32 220.799 c 32
 216.381 35.582 212.799 40 212.799 c 80 212.799 l 80 180.799 l 24 180.799
 l 19.59 180.799 16 184.389 16 188.799 c 16 385.6 l 16 390.01 19.59 393.6
 24 393.6 c 300.801 393.6 l 305.211 393.6 308.801 390.01 308.801 385.6 c
 308.801 244.799 l 104 244.799 l 93.57 244.799 84.68 238.112 81.375 228.799
 c h
393.602 23.998 m 393.602 19.588 390.012 15.998 385.602 15.998 c 104 15.998
 l 99.59 15.998 96 19.588 96 23.998 c 96 130.401 l 393.602 130.401 l h
393.602 146.401 m 96 146.401 l 96 180.799 l 393.602 180.799 l h
393.602 196.799 m 96 196.799 l 96 220.799 l 96 225.209 99.59 228.799 104
 228.799 c 385.602 228.799 l 390.012 228.799 393.602 225.209 393.602 220.799
 c h
393.602 196.799 m f
188.801 98.401 m 120 98.401 l 115.582 98.401 112 94.819 112 90.401 c 112
 85.983 115.582 82.401 120 82.401 c 188.801 82.401 l 193.219 82.401 196.801
 85.983 196.801 90.401 c 196.801 94.819 193.219 98.401 188.801 98.401 c
h
188.801 98.401 m f
220.801 66.401 m 120 66.401 l 115.582 66.401 112 62.819 112 58.401 c 112
 53.983 115.582 50.401 120 50.401 c 220.801 50.401 l 225.219 50.401 228.801
 53.983 228.801 58.401 c 228.801 62.819 225.219 66.401 220.801 66.401 c
h
220.801 66.401 m f
88 276.799 m 40 276.799 l 35.582 276.799 32 273.217 32 268.799 c 32 264.381
 35.582 260.799 40 260.799 c 88 260.799 l 92.418 260.799 96 264.381 96 268.799
 c 96 273.217 92.418 276.799 88 276.799 c h
88 276.799 m f
188.801 276.799 m 136 276.799 l 131.582 276.799 128 273.217 128 268.799
 c 128 264.381 131.582 260.799 136 260.799 c 188.801 260.799 l 193.219 260.799
 196.801 264.381 196.801 268.799 c 196.801 273.217 193.219 276.799 188.801
 276.799 c h
188.801 276.799 m f
284.801 276.799 m 236.801 276.799 l 232.383 276.799 228.801 273.217 228.801
 268.799 c 228.801 264.381 232.383 260.799 236.801 260.799 c 284.801 260.799
 l 289.219 260.799 292.801 264.381 292.801 268.799 c 292.801 273.217 289.219
 276.799 284.801 276.799 c h
284.801 276.799 m f
120 377.6 m 40 377.6 l 35.582 377.6 32 374.018 32 369.6 c 32 321.6 l 32
 317.182 35.582 313.6 40 313.6 c 120 313.6 l 124.418 313.6 128 317.182 128
 321.6 c 128 369.6 l 128 374.018 124.418 377.6 120 377.6 c h
112 329.6 m 48 329.6 l 48 361.6 l 112 361.6 l h
112 329.6 m f
260.801 377.6 m 255.137 377.6 249.637 376.096 244.805 373.303 c 239.973
 376.096 234.469 377.6 228.801 377.6 c 211.156 377.6 196.801 363.245 196.801
 345.6 c 196.801 327.955 211.156 313.6 228.801 313.6 c 234.469 313.6 239.973
 315.104 244.805 317.897 c 249.633 315.104 255.137 313.6 260.801 313.6 c
 278.445 313.6 292.801 327.955 292.801 345.6 c 292.801 363.245 278.445 377.6
 260.801 377.6 c h
232.809 330.12 m 231.508 329.784 230.164 329.6 228.801 329.6 c 219.977
329.6 212.801 336.776 212.801 345.6 c 212.801 354.424 219.977 361.6 228.801
 361.6 c 230.164 361.6 231.508 361.416 232.809 361.077 c 230.215 356.389
 228.801 351.073 228.801 345.6 c 228.801 340.127 230.215 334.807 232.809
 330.12 c h
260.801 329.6 m 256.863 329.6 253.082 331.049 250.129 333.694 c 246.742
 336.713 244.801 341.053 244.801 345.6 c 244.801 350.147 246.742 354.487
 250.129 357.506 c 250.137 357.514 250.141 357.518 250.148 357.522 c 253.082
 360.151 256.863 361.6 260.801 361.6 c 269.621 361.6 276.801 354.424 276.801
 345.6 c 276.801 336.776 269.621 329.6 260.801 329.6 c h
260.801 329.6 m f
345.602 114.401 m 339.938 114.401 334.434 112.897 329.605 110.1 c 324.773
 112.897 319.27 114.401 313.602 114.401 c 295.957 114.401 281.602 100.045
 281.602 82.401 c 281.602 64.756 295.957 50.401 313.602 50.401 c 319.27
50.401 324.773 51.905 329.605 54.698 c 334.434 51.905 339.938 50.401 345.602
 50.401 c 363.246 50.401 377.602 64.756 377.602 82.401 c 377.602 100.045
 363.246 114.401 345.602 114.401 c h
317.609 66.92 m 316.309 66.584 314.965 66.401 313.602 66.401 c 304.777
66.401 297.602 73.577 297.602 82.401 c 297.602 91.221 304.777 98.401 313.602
 98.401 c 314.965 98.401 316.309 98.213 317.609 97.877 c 315.016 93.19 313.602
 87.873 313.602 82.401 c 313.602 76.928 315.016 71.608 317.609 66.92 c h
345.602 66.401 m 341.664 66.401 337.879 67.846 334.93 70.495 c 331.543
73.51 329.602 77.85 329.602 82.401 c 329.602 86.948 331.543 91.288 334.93
 94.307 c 334.938 94.311 334.941 94.319 334.945 94.323 c 337.879 96.952
341.664 98.401 345.602 98.401 c 354.422 98.401 361.602 91.221 361.602 82.401
 c 361.602 73.577 354.422 66.401 345.602 66.401 c h
345.602 66.401 m f
Q Q
showpage
%%Trailer
end restore
%%EOF
