%!PS-Adobe-3.0 EPSF-3.0
%%Creator: cairo 1.14.2 (http://cairographics.org)
%%CreationDate: Tue Feb 27 07:19:52 2018
%%Pages: 1
%%DocumentData: Clean7Bit
%%LanguageLevel: 2
%%BoundingBox: 0 47 410 363
%%EndComments
%%BeginProlog
save
50 dict begin
/q { gsave } bind def
/Q { grestore } bind def
/cm { 6 array astore concat } bind def
/w { setlinewidth } bind def
/J { setlinecap } bind def
/j { setlinejoin } bind def
/M { setmiterlimit } bind def
/d { setdash } bind def
/m { moveto } bind def
/l { lineto } bind def
/c { curveto } bind def
/h { closepath } bind def
/re { exch dup neg 3 1 roll 5 3 roll moveto 0 rlineto
      0 exch rlineto 0 rlineto closepath } bind def
/S { stroke } bind def
/f { fill } bind def
/f* { eofill } bind def
/n { newpath } bind def
/W { clip } bind def
/W* { eoclip } bind def
/BT { } bind def
/ET { } bind def
/pdfmark where { pop globaldict /?pdfmark /exec load put }
    { globaldict begin /?pdfmark /pop load def /pdfmark
    /cleartomark load def end } ifelse
/BDC { mark 3 1 roll /BDC pdfmark } bind def
/EMC { mark /EMC pdfmark } bind def
/cairo_store_point { /cairo_point_y exch def /cairo_point_x exch def } def
/Tj { show currentpoint cairo_store_point } bind def
/TJ {
  {
    dup
    userType /stringtype eq
    { show } { -0.001 mul 0 cairo_font_matrix dtransform rmoveto } ifelse
  } forall
  currentpoint cairo_store_point
} bind def
/cairo_selectfont { cairo_font_matrix aload pop pop pop 0 0 6 array astore
    cairo_font exch selectfont cairo_point_x cairo_point_y moveto } bind def
/Tf { pop /cairo_font exch def /cairo_font_matrix where
      { pop cairo_selectfont } if } bind def
/Td { matrix translate cairo_font_matrix matrix concatmatrix dup
      /cairo_font_matrix exch def dup 4 get exch 5 get cairo_store_point
      /cairo_font where { pop cairo_selectfont } if } bind def
/Tm { 2 copy 8 2 roll 6 array astore /cairo_font_matrix exch def
      cairo_store_point /cairo_font where { pop cairo_selectfont } if } bind def
/g { setgray } bind def
/rg { setrgbcolor } bind def
/d1 { setcachedevice } bind def
%%EndProlog
%%BeginSetup
%%EndSetup
%%Page: 1 1
%%BeginPageSetup
%%PageBoundingBox: 0 47 410 363
%%EndPageSetup
q 0 47 410 316 rectclip q
0 g
348.461 361.713 m 20.094 361.713 l 9.016 361.713 0 352.698 0 341.62 c 0
 122.709 l 0 111.627 9.016 102.612 20.094 102.612 c 135.965 102.612 l 130.73
 60.713 l 122.707 60.713 l 119.168 60.713 116.297 57.842 116.297 54.299
c 116.297 50.756 119.168 47.885 122.707 47.885 c 156.914 47.885 l 160.457
 47.885 163.328 50.756 163.328 54.299 c 163.328 57.842 160.457 60.713 156.914
 60.713 c 143.656 60.713 l 148.895 102.612 l 156.914 102.612 l 160.457 102.612
 163.328 105.487 163.328 109.026 c 163.328 112.569 160.457 115.44 156.914
 115.44 c 20.094 115.44 l 16.086 115.44 12.828 118.702 12.828 122.709 c
12.828 143.659 l 156.914 143.659 l 160.457 143.659 163.328 146.53 163.328
 150.073 c 163.328 153.616 160.457 156.487 156.914 156.487 c 12.828 156.487
 l 12.828 341.62 l 12.828 345.627 16.086 348.889 20.094 348.889 c 348.461
 348.889 l 352.469 348.889 355.727 345.627 355.727 341.62 c 355.727 204.799
 l 355.727 201.26 358.598 198.385 362.141 198.385 c 365.684 198.385 368.555
 201.256 368.555 204.799 c 368.555 341.62 l 368.555 352.698 359.539 361.713
 348.461 361.713 c h
348.461 361.713 m f
293.73 238.577 m 197.961 238.577 l 186.879 238.577 177.863 229.561 177.863
 218.483 c 177.863 67.983 l 177.863 56.901 186.879 47.885 197.961 47.885
 c 293.73 47.885 l 304.812 47.885 313.828 56.901 313.828 67.983 c 313.828
 218.483 l 313.828 229.561 304.812 238.577 293.73 238.577 c h
301 67.983 m 301 63.975 297.738 60.713 293.73 60.713 c 197.961 60.713 l
 193.953 60.713 190.691 63.975 190.691 67.983 c 190.691 75.252 l 301 75.252
 l h
301 88.077 m 190.691 88.077 l 190.691 198.385 l 301 198.385 l h
301 211.213 m 190.691 211.213 l 190.691 218.483 l 190.691 222.491 193.953
 225.752 197.961 225.752 c 293.73 225.752 l 297.738 225.752 301 222.491
301 218.483 c h
301 211.213 m f
389.504 183.85 m 348.461 183.85 l 337.379 183.85 328.363 174.834 328.363
 163.756 c 328.363 67.983 l 328.363 56.901 337.379 47.885 348.461 47.885
 c 389.504 47.885 l 400.586 47.885 409.602 56.901 409.602 67.983 c 409.602
 163.756 l 409.602 174.834 400.586 183.85 389.504 183.85 c h
396.773 67.983 m 396.773 63.975 393.512 60.713 389.504 60.713 c 348.461
 60.713 l 344.453 60.713 341.191 63.975 341.191 67.983 c 341.191 75.252
l 396.773 75.252 l h
396.773 88.077 m 341.191 88.077 l 341.191 143.659 l 396.773 143.659 l h
396.773 156.487 m 341.191 156.487 l 341.191 163.756 l 341.191 167.764 344.453
 171.022 348.461 171.022 c 389.504 171.022 l 393.512 171.022 396.773 167.764
 396.773 163.756 c h
396.773 156.487 m f
Q Q
showpage
%%Trailer
end restore
%%EOF
