%!PS-Adobe-3.0 EPSF-3.0
%%Creator: cairo 1.14.2 (http://cairographics.org)
%%CreationDate: Tue Feb 27 07:19:52 2018
%%Pages: 1
%%DocumentData: Clean7Bit
%%LanguageLevel: 2
%%BoundingBox: 17 -1 393 410
%%EndComments
%%BeginProlog
save
50 dict begin
/q { gsave } bind def
/Q { grestore } bind def
/cm { 6 array astore concat } bind def
/w { setlinewidth } bind def
/J { setlinecap } bind def
/j { setlinejoin } bind def
/M { setmiterlimit } bind def
/d { setdash } bind def
/m { moveto } bind def
/l { lineto } bind def
/c { curveto } bind def
/h { closepath } bind def
/re { exch dup neg 3 1 roll 5 3 roll moveto 0 rlineto
      0 exch rlineto 0 rlineto closepath } bind def
/S { stroke } bind def
/f { fill } bind def
/f* { eofill } bind def
/n { newpath } bind def
/W { clip } bind def
/W* { eoclip } bind def
/BT { } bind def
/ET { } bind def
/pdfmark where { pop globaldict /?pdfmark /exec load put }
    { globaldict begin /?pdfmark /pop load def /pdfmark
    /cleartomark load def end } ifelse
/BDC { mark 3 1 roll /BDC pdfmark } bind def
/EMC { mark /EMC pdfmark } bind def
/cairo_store_point { /cairo_point_y exch def /cairo_point_x exch def } def
/Tj { show currentpoint cairo_store_point } bind def
/TJ {
  {
    dup
    userType /stringtype eq
    { show } { -0.001 mul 0 cairo_font_matrix dtransform rmoveto } ifelse
  } forall
  currentpoint cairo_store_point
} bind def
/cairo_selectfont { cairo_font_matrix aload pop pop pop 0 0 6 array astore
    cairo_font exch selectfont cairo_point_x cairo_point_y moveto } bind def
/Tf { pop /cairo_font exch def /cairo_font_matrix where
      { pop cairo_selectfont } if } bind def
/Td { matrix translate cairo_font_matrix matrix concatmatrix dup
      /cairo_font_matrix exch def dup 4 get exch 5 get cairo_store_point
      /cairo_font where { pop cairo_selectfont } if } bind def
/Tm { 2 copy 8 2 roll 6 array astore /cairo_font_matrix exch def
      cairo_store_point /cairo_font where { pop cairo_selectfont } if } bind def
/g { setgray } bind def
/rg { setrgbcolor } bind def
/d1 { setcachedevice } bind def
%%EndProlog
%%BeginSetup
%%EndSetup
%%Page: 1 1
%%BeginPageSetup
%%PageBoundingBox: 17 -1 393 410
%%EndPageSetup
q 17 -1 376 411 rectclip q
0 g
378.926 52.096 m 364.25 60.483 l 369.172 61.924 373.777 63.6 378.023 65.502
 c 382.699 67.596 385.695 72.178 385.656 77.174 c 385.379 113.026 381.188
 139.815 372.844 159.08 c 361.789 184.596 343.227 197.53 317.676 197.53
c 292.125 197.53 273.562 184.596 262.508 159.08 c 259.23 151.518 256.598
 142.791 254.59 132.819 c 214.633 160.288 l 214.633 212.069 l 276.629 212.069
 l 287.711 212.069 296.727 221.08 296.727 232.163 c 296.727 245.303 l 296.727
 256.471 289.703 266.604 279.246 270.526 c 246.715 282.725 l 244.594 283.522
 243 285.264 242.336 287.358 c 245.578 289.791 l 251.863 294.506 255.77
301.705 256.293 309.545 c 260.559 373.577 l 261.18 382.87 257.887 392.1
251.523 398.897 c 245.16 405.698 236.172 409.6 226.859 409.6 c 189.582 409.6
 l 180.27 409.6 171.277 405.698 164.918 398.901 c 158.555 392.1 155.262
382.87 155.879 373.577 c 160.148 309.545 l 160.672 301.705 164.578 294.506
 170.863 289.791 c 174.105 287.358 l 173.445 285.264 171.848 283.522 169.727
 282.725 c 137.195 270.526 l 126.738 266.604 119.715 256.471 119.715 245.303
 c 119.715 232.163 l 119.715 221.08 128.73 212.069 139.812 212.069 c 201.809
 212.069 l 201.809 160.288 l 155.754 128.627 l 157.945 161.506 l 158.566
 170.799 155.273 180.03 148.91 186.83 c 142.547 193.631 133.559 197.53 124.246
 197.53 c 86.969 197.53 l 77.656 197.53 68.668 193.631 62.305 186.83 c 55.941
 180.03 52.648 170.799 53.27 161.506 c 57.535 97.479 l 58.059 89.635 61.965
 82.436 68.25 77.721 c 71.492 75.288 l 70.832 73.194 69.234 71.452 67.113
 70.659 c 34.582 58.455 l 24.129 54.538 17.102 44.401 17.102 33.237 c 17.102
 20.092 l 17.102 9.014 26.117 -0.002 37.199 -0.002 c 174.016 -0.002 l 185.098
 -0.002 194.109 9.014 194.109 20.092 c 194.109 33.237 l 194.109 44.401 187.086
 54.534 176.633 58.455 c 144.102 70.655 l 141.98 71.452 140.387 73.194 139.723
 75.288 c 142.965 77.721 l 149.25 82.436 153.156 89.635 153.676 97.475 c
 154.668 112.311 l 208.223 149.131 l 252.285 118.834 l 250.672 106.569 249.812
 92.725 249.695 77.174 c 249.656 72.174 252.652 67.592 257.324 65.502 c
261.57 63.6 266.176 61.924 271.102 60.479 c 256.426 52.092 l 248.055 47.311
 242.855 38.346 242.855 28.705 c 242.855 20.092 l 242.855 9.01 251.867 -0.002
 262.949 -0.002 c 372.402 -0.002 l 383.484 -0.002 392.5 9.01 392.5 20.092
 c 392.5 28.705 l 392.496 38.35 387.297 47.311 378.926 52.096 c h
148.82 55.19 m 172.129 46.448 l 177.605 44.393 181.285 39.084 181.285 33.237
 c 181.285 20.096 l 181.285 16.088 178.023 12.827 174.016 12.827 c 37.199
 12.827 l 33.191 12.827 29.93 16.088 29.93 20.096 c 29.93 33.237 l 29.93
 39.084 33.609 44.393 39.086 46.448 c 62.395 55.19 l 70.031 38.393 86.906
 27.362 105.605 27.362 c 124.305 27.366 141.184 38.393 148.82 55.19 c h
74.34 59.916 m 77.539 61.705 80.152 64.33 81.953 67.444 c 82.605 66.955
 l 87.234 63.483 92.977 61.569 98.766 61.569 c 112.445 61.569 l 118.238
61.569 123.977 63.483 128.609 66.955 c 129.262 67.444 l 131.059 64.33 133.672
 61.705 136.871 59.916 c 131.176 47.987 119.035 40.19 105.605 40.19 c 92.176
 40.19 80.035 47.987 74.34 59.916 c h
140.879 98.33 m 140.605 94.225 138.559 90.452 135.266 87.983 c 120.914
77.217 l 118.488 75.397 115.48 74.397 112.449 74.397 c 98.766 74.397 l 95.734
 74.397 92.727 75.397 90.301 77.217 c 75.945 87.983 l 72.652 90.452 70.609
 94.225 70.336 98.33 c 68.207 130.256 l 79.641 131.276 118.617 135.444 144.102
 146.627 c h
145.148 162.362 m 145.086 161.416 l 123.285 148.998 79.59 144.198 67.352
 143.069 c 66.066 162.362 l 65.676 168.209 67.664 173.788 71.668 178.069
 c 75.672 182.346 81.105 184.705 86.969 184.705 c 124.242 184.705 l 130.105
 184.705 135.539 182.346 139.543 178.069 c 143.547 173.788 145.539 168.209
 145.148 162.362 c h
168.68 374.428 m 168.289 380.276 170.277 385.854 174.285 390.135 c 178.289
 394.416 183.723 396.772 189.582 396.772 c 226.859 396.772 l 232.719 396.772
 238.152 394.416 242.156 390.135 c 246.164 385.854 248.152 380.276 247.762
 374.428 c 247.699 373.483 l 225.902 361.069 182.207 356.268 169.965 355.135
 c h
172.949 310.401 m 170.82 342.327 l 182.254 343.346 221.23 347.51 246.711
 358.694 c 245.027 333.389 l 245.027 333.389 245.023 333.385 245.023 333.385
 c 244.32 322.784 234.746 313.827 224.121 313.827 c 208.219 313.827 l 204.68
 313.827 201.805 310.955 201.805 307.413 c 201.805 303.87 204.676 300.998
 208.219 300.998 c 224.121 300.998 l 230.918 300.998 237.355 303.159 242.762
 306.815 c 241.855 304.147 240.184 301.776 237.883 300.049 c 223.527 289.284
 l 221.102 287.463 218.094 286.463 215.062 286.463 c 201.379 286.463 l 198.348
 286.463 195.34 287.467 192.914 289.284 c 178.559 300.053 l 175.266 302.522
 173.223 306.291 172.949 310.401 c h
237.641 273.166 m 208.223 253.553 l 178.801 273.166 l 181.164 274.854 183.129
 277.026 184.566 279.514 c 185.219 279.026 l 189.848 275.549 195.59 273.635
 201.379 273.635 c 215.062 273.635 l 220.852 273.635 226.59 275.549 231.223
 279.026 c 231.875 279.514 l 233.312 277.026 235.277 274.854 237.641 273.166
 c h
139.812 224.897 m 135.805 224.897 132.543 228.155 132.543 232.163 c 132.543
 245.307 l 132.543 251.155 136.223 256.463 141.699 258.514 c 164.707 267.143
 l 204.664 240.51 l 205.742 239.791 206.98 239.432 208.223 239.432 c 209.461
 239.432 210.699 239.791 211.777 240.51 c 251.734 267.143 l 274.742 258.514
 l 280.219 256.463 283.898 251.155 283.898 245.307 c 283.898 232.163 l 283.898
 228.155 280.641 224.897 276.633 224.897 c h
262.57 77.209 m 262.551 77.217 262.535 77.225 262.52 77.233 c 262.793 111.248
 266.641 136.354 274.277 153.979 c 283.234 174.655 297.43 184.705 317.676
 184.705 c 337.918 184.705 352.113 174.655 361.07 153.979 c 368.707 136.354
 372.555 111.245 372.828 77.233 c 372.812 77.225 372.801 77.217 372.781
77.205 c 365.777 74.069 357.238 71.534 347.98 69.803 c 345.898 71.131 344.609
 73.436 344.609 75.92 c 344.609 76.163 344.594 76.401 344.566 76.639 c 345.215
 77.026 l 353.281 81.866 358.293 90.717 358.293 100.123 c 358.293 136.389
 l 358.293 138.092 357.617 139.721 356.414 140.924 c 342.73 154.608 l 340.227
 157.112 336.168 157.112 333.664 154.608 c 329.141 150.084 318.941 146.487
 304.945 144.471 c 293.547 142.83 283.566 142.803 283.469 142.803 c 279.93
 142.803 277.059 139.932 277.059 136.389 c 277.059 100.123 l 277.059 90.717
 282.066 81.866 290.133 77.026 c 290.781 76.639 l 290.754 76.401 290.738
 76.163 290.738 75.92 c 290.738 73.436 289.449 71.131 287.367 69.803 c 278.113
 71.534 269.57 74.073 262.57 77.209 c h
302.531 69.588 m 307.336 66.705 l 310.527 64.791 314.102 63.834 317.676
 63.834 c 321.25 63.834 324.828 64.791 328.016 66.705 c 332.82 69.588 l
334.363 64.959 337.562 60.959 341.91 58.475 c 345.508 56.416 l 342.309 52.123
 331.891 39.323 317.676 33.756 c 303.543 39.303 293.066 52.123 289.848 56.42
 c 293.441 58.475 l 297.793 60.959 300.988 64.959 302.531 69.588 c h
289.883 100.123 m 289.883 130.17 l 294.137 130.381 300.113 130.827 306.609
 131.752 c 320.191 133.694 330.602 136.971 337.68 141.522 c 345.465 133.733
 l 345.465 100.123 l 345.465 95.198 342.84 90.561 338.617 88.026 c 321.414
 77.705 l 319.109 76.323 316.242 76.323 313.934 77.705 c 296.734 88.026
l 292.508 90.561 289.883 95.198 289.883 100.123 c h
379.672 20.096 m 379.672 16.088 376.41 12.827 372.402 12.827 c 262.949
12.827 l 258.941 12.827 255.68 16.088 255.68 20.096 c 255.68 28.709 l 255.68
 33.76 258.402 38.452 262.789 40.959 c 278.637 50.014 l 281.43 46.065 295.305
 27.631 315.648 20.854 c 316.305 20.631 316.992 20.522 317.676 20.522 c
318.359 20.522 319.047 20.631 319.703 20.854 c 340.047 27.631 353.922 46.065
 356.715 50.014 c 372.562 40.959 l 376.949 38.452 379.672 33.76 379.672
28.709 c h
379.672 20.096 m f
Q Q
showpage
%%Trailer
end restore
%%EOF
