%!PS-Adobe-3.0 EPSF-3.0
%%Creator: cairo 1.14.2 (http://cairographics.org)
%%CreationDate: Tue Feb 27 07:19:52 2018
%%Pages: 1
%%DocumentData: Clean7Bit
%%LanguageLevel: 2
%%BoundingBox: 21 0 355 376
%%EndComments
%%BeginProlog
save
50 dict begin
/q { gsave } bind def
/Q { grestore } bind def
/cm { 6 array astore concat } bind def
/w { setlinewidth } bind def
/J { setlinecap } bind def
/j { setlinejoin } bind def
/M { setmiterlimit } bind def
/d { setdash } bind def
/m { moveto } bind def
/l { lineto } bind def
/c { curveto } bind def
/h { closepath } bind def
/re { exch dup neg 3 1 roll 5 3 roll moveto 0 rlineto
      0 exch rlineto 0 rlineto closepath } bind def
/S { stroke } bind def
/f { fill } bind def
/f* { eofill } bind def
/n { newpath } bind def
/W { clip } bind def
/W* { eoclip } bind def
/BT { } bind def
/ET { } bind def
/pdfmark where { pop globaldict /?pdfmark /exec load put }
    { globaldict begin /?pdfmark /pop load def /pdfmark
    /cleartomark load def end } ifelse
/BDC { mark 3 1 roll /BDC pdfmark } bind def
/EMC { mark /EMC pdfmark } bind def
/cairo_store_point { /cairo_point_y exch def /cairo_point_x exch def } def
/Tj { show currentpoint cairo_store_point } bind def
/TJ {
  {
    dup
    userType /stringtype eq
    { show } { -0.001 mul 0 cairo_font_matrix dtransform rmoveto } ifelse
  } forall
  currentpoint cairo_store_point
} bind def
/cairo_selectfont { cairo_font_matrix aload pop pop pop 0 0 6 array astore
    cairo_font exch selectfont cairo_point_x cairo_point_y moveto } bind def
/Tf { pop /cairo_font exch def /cairo_font_matrix where
      { pop cairo_selectfont } if } bind def
/Td { matrix translate cairo_font_matrix matrix concatmatrix dup
      /cairo_font_matrix exch def dup 4 get exch 5 get cairo_store_point
      /cairo_font where { pop cairo_selectfont } if } bind def
/Tm { 2 copy 8 2 roll 6 array astore /cairo_font_matrix exch def
      cairo_store_point /cairo_font where { pop cairo_selectfont } if } bind def
/g { setgray } bind def
/rg { setrgbcolor } bind def
/d1 { setcachedevice } bind def
%%EndProlog
%%BeginSetup
%%EndSetup
%%Page: 1 1
%%BeginPageSetup
%%PageBoundingBox: 21 0 355 376
%%EndPageSetup
q 21 0 334 376 rectclip q
0 g
288.664 68.527 m 290.027 69.629 290.902 71.312 290.902 73.199 c 290.902
 346 l 290.902 349.312 288.215 352 284.902 352 c 111.312 352 l 107.031 365.883
 94.086 376 78.816 376 c 63.793 376 50.648 365.988 46.324 352 c 27.098 352
 l 23.785 352 21.098 349.312 21.098 346 c 21.098 6 l 21.098 2.688 23.785
 0 27.098 0 c 217.648 0 l 219.59 0 221.27 0.875 222.371 2.234 c h
223.699 20.539 m 223.699 67.199 l 270.363 67.199 l h
78.816 364 m 87.348 364 94.754 359.117 98.402 352 c 59.23 352 l 62.91 359.16
 70.41 364 78.816 364 c h
33.098 340 m 100.816 340 l 100.816 298 l 100.816 292.484 96.332 288 90.816
 288 c 85.301 288 80.816 292.484 80.816 298 c 80.816 322 l 80.816 325.312
 78.129 328 74.816 328 c 71.5 328 68.816 325.312 68.816 322 c 68.816 298
 l 68.816 285.871 78.688 276 90.816 276 c 102.945 276 112.816 285.871 112.816
 298 c 112.816 340 l 278.902 340 l 278.902 79.199 l 217.699 79.199 l 214.387
 79.199 211.699 76.516 211.699 73.199 c 211.699 12 l 33.098 12 l h
33.098 340 m f
236.902 99.602 m 240.215 99.602 242.902 102.285 242.902 105.602 c 242.902
 108.914 240.215 111.602 236.902 111.602 c 75.098 111.602 l 71.785 111.602
 69.098 108.914 69.098 105.602 c 69.098 102.285 71.785 99.602 75.098 99.602
 c h
236.902 99.602 m f
75.098 135.602 m 236.902 135.602 l 240.215 135.602 242.902 138.285 242.902
 141.602 c 242.902 144.914 240.215 147.602 236.902 147.602 c 75.098 147.602
 l 71.785 147.602 69.098 144.914 69.098 141.602 c 69.098 138.285 71.785
135.602 75.098 135.602 c h
75.098 135.602 m f
75.098 171.602 m 236.902 171.602 l 240.215 171.602 242.902 174.285 242.902
 177.602 c 242.902 180.914 240.215 183.602 236.902 183.602 c 75.098 183.602
 l 71.785 183.602 69.098 180.914 69.098 177.602 c 69.098 174.285 71.785
171.602 75.098 171.602 c h
75.098 171.602 m f
75.098 207.602 m 236.902 207.602 l 240.215 207.602 242.902 210.285 242.902
 213.602 c 242.902 216.914 240.215 219.602 236.902 219.602 c 75.098 219.602
 l 71.785 219.602 69.098 216.914 69.098 213.602 c 69.098 210.285 71.785
207.602 75.098 207.602 c h
75.098 207.602 m f
75.098 243.602 m 236.902 243.602 l 240.215 243.602 242.902 246.285 242.902
 249.602 c 242.902 252.914 240.215 255.602 236.902 255.602 c 75.098 255.602
 l 71.785 255.602 69.098 252.914 69.098 249.602 c 69.098 246.285 71.785
243.602 75.098 243.602 c h
75.098 243.602 m f
316.902 352 m 308.902 352 l 305.586 352 302.902 349.312 302.902 346 c 302.902
 342.688 305.586 340 308.902 340 c 310.902 340 l 310.902 12 l 246.844 12
 l 243.527 12 240.844 9.312 240.844 6 c 240.844 2.688 243.527 0 246.844
0 c 316.902 0 l 320.215 0 322.902 2.688 322.902 6 c 322.902 346 l 322.902
 349.312 320.215 352 316.902 352 c h
316.902 352 m f
348.902 352 m 340.902 352 l 337.586 352 334.902 349.312 334.902 346 c 334.902
 342.688 337.586 340 340.902 340 c 342.902 340 l 342.902 12 l 340.902 12
 l 337.586 12 334.902 9.312 334.902 6 c 334.902 2.688 337.586 0 340.902
0 c 348.902 0 l 352.215 0 354.902 2.688 354.902 6 c 354.902 346 l 354.902
 349.312 352.215 352 348.902 352 c h
348.902 352 m f
Q Q
showpage
%%Trailer
end restore
%%EOF
