%!PS-Adobe-3.0 EPSF-3.0
%%Creator: cairo 1.14.2 (http://cairographics.org)
%%CreationDate: Tue Feb 27 07:19:52 2018
%%Pages: 1
%%DocumentData: Clean7Bit
%%LanguageLevel: 2
%%BoundingBox: 0 -1 410 410
%%EndComments
%%BeginProlog
save
50 dict begin
/q { gsave } bind def
/Q { grestore } bind def
/cm { 6 array astore concat } bind def
/w { setlinewidth } bind def
/J { setlinecap } bind def
/j { setlinejoin } bind def
/M { setmiterlimit } bind def
/d { setdash } bind def
/m { moveto } bind def
/l { lineto } bind def
/c { curveto } bind def
/h { closepath } bind def
/re { exch dup neg 3 1 roll 5 3 roll moveto 0 rlineto
      0 exch rlineto 0 rlineto closepath } bind def
/S { stroke } bind def
/f { fill } bind def
/f* { eofill } bind def
/n { newpath } bind def
/W { clip } bind def
/W* { eoclip } bind def
/BT { } bind def
/ET { } bind def
/pdfmark where { pop globaldict /?pdfmark /exec load put }
    { globaldict begin /?pdfmark /pop load def /pdfmark
    /cleartomark load def end } ifelse
/BDC { mark 3 1 roll /BDC pdfmark } bind def
/EMC { mark /EMC pdfmark } bind def
/cairo_store_point { /cairo_point_y exch def /cairo_point_x exch def } def
/Tj { show currentpoint cairo_store_point } bind def
/TJ {
  {
    dup
    userType /stringtype eq
    { show } { -0.001 mul 0 cairo_font_matrix dtransform rmoveto } ifelse
  } forall
  currentpoint cairo_store_point
} bind def
/cairo_selectfont { cairo_font_matrix aload pop pop pop 0 0 6 array astore
    cairo_font exch selectfont cairo_point_x cairo_point_y moveto } bind def
/Tf { pop /cairo_font exch def /cairo_font_matrix where
      { pop cairo_selectfont } if } bind def
/Td { matrix translate cairo_font_matrix matrix concatmatrix dup
      /cairo_font_matrix exch def dup 4 get exch 5 get cairo_store_point
      /cairo_font where { pop cairo_selectfont } if } bind def
/Tm { 2 copy 8 2 roll 6 array astore /cairo_font_matrix exch def
      cairo_store_point /cairo_font where { pop cairo_selectfont } if } bind def
/g { setgray } bind def
/rg { setrgbcolor } bind def
/d1 { setcachedevice } bind def
%%EndProlog
%%BeginSetup
%%EndSetup
%%Page: 1 1
%%BeginPageSetup
%%PageBoundingBox: 0 -1 410 410
%%EndPageSetup
q 0 -1 410 411 rectclip q
0 g
127.836 161.893 m 84.887 161.893 l 87.188 169.987 94.148 173.963 104.867
 179.436 c 118.055 186.174 134.469 194.557 134.469 218.51 c 134.469 238.026
 120.184 253.897 102.621 253.897 c 85.059 253.897 70.773 238.026 70.773
218.51 c 70.773 214.846 73.742 211.877 77.406 211.877 c 81.07 211.877 84.043
 214.846 84.043 218.51 c 84.043 230.705 92.375 240.627 102.621 240.627 c
 112.867 240.627 121.199 230.705 121.199 218.51 c 121.199 203.444 112.699
 198.338 98.832 191.256 c 86.332 184.87 70.773 176.924 70.773 155.26 c 70.773
 151.596 73.742 148.623 77.406 148.623 c 127.832 148.623 l 131.496 148.623
 134.469 151.592 134.469 155.26 c 134.469 158.924 131.5 161.893 127.836
161.893 c h
127.836 161.893 m f
371.992 76.866 m 361.301 72.686 l 392.57 109.577 409.602 155.807 409.602
 204.799 c 409.602 259.502 388.297 310.936 349.613 349.616 c 310.934 388.295
 259.504 409.6 204.801 409.6 c 162.754 409.6 122.352 396.952 87.965 373.026
 c 84.957 370.932 84.215 366.795 86.305 363.788 c 88.398 360.78 92.535 360.038
 95.543 362.131 c 127.695 384.506 165.477 396.33 204.801 396.33 c 255.961
 396.33 304.059 376.409 340.234 340.233 c 376.406 304.057 396.332 255.959
 396.332 204.799 c 396.332 157.346 379.25 112.666 347.988 77.592 c 350.645
 94.088 l 351.23 97.705 348.77 101.112 345.152 101.698 c 341.535 102.284
 338.129 99.819 337.547 96.202 c 331.297 57.448 l 330.922 55.1 331.828 52.725
 333.68 51.229 c 334.879 50.264 336.355 49.76 337.848 49.76 c 338.664 49.76
 339.48 49.909 340.266 50.213 c 376.824 64.506 l 380.234 65.842 381.922
69.69 380.586 73.1 c 379.25 76.514 375.402 78.202 371.992 76.866 c h
371.992 76.866 m f
270.594 274.791 m 267.117 275.948 263.359 274.069 262.199 270.592 c 219.738
 143.202 l 218.578 139.725 220.457 135.967 223.934 134.807 c 224.629 134.577
 225.336 134.467 226.031 134.467 c 228.809 134.467 231.398 136.225 232.328
 139.006 c 274.789 266.397 l 275.949 269.873 274.07 273.631 270.594 274.791
 c h
270.594 274.791 m f
344.859 250.838 m 343.637 252.745 341.531 253.901 339.27 253.901 c 289.727
 253.901 l 286.062 253.901 283.094 250.928 283.094 247.264 c 283.094 243.6
 286.062 240.627 289.727 240.627 c 328.898 240.627 l 290.781 158.038 l 289.246
 154.713 290.699 150.768 294.023 149.233 c 294.926 148.819 295.871 148.623
 296.801 148.623 c 299.309 148.623 301.707 150.053 302.828 152.479 c 345.293
 244.483 l 346.242 246.538 346.078 248.936 344.859 250.838 c h
344.859 250.838 m f
204.801 183.127 m 197.281 183.127 l 197.281 247.264 l 197.281 250.928 194.309
 253.901 190.645 253.901 c 186.98 253.901 184.008 250.928 184.008 247.264
 c 184.008 183.127 l 156.273 183.127 l 168.84 245.963 l 169.559 249.557
167.23 253.053 163.637 253.768 c 160.039 254.487 156.547 252.159 155.828
 248.565 c 141.676 177.791 l 141.285 175.842 141.789 173.819 143.047 172.284
 c 144.309 170.745 146.191 169.854 148.18 169.854 c 184.008 169.854 l 184.008
 155.256 l 184.008 151.592 186.98 148.623 190.645 148.623 c 194.309 148.623
 197.277 151.592 197.277 155.256 c 197.277 169.858 l 204.801 169.858 l 208.465
 169.858 211.434 172.827 211.434 176.491 c 211.434 180.155 208.465 183.127
 204.801 183.127 c h
204.801 183.127 m f
323.289 45.807 m 321.199 48.819 317.062 49.561 314.055 47.467 c 281.898
 25.096 244.121 13.268 204.801 13.268 c 153.641 13.268 105.543 33.194 69.367
 69.366 c 33.191 105.541 13.27 153.639 13.27 204.799 c 13.27 252.252 30.348
 296.932 61.613 332.006 c 58.758 314.303 l 58.176 310.686 60.633 307.28
64.254 306.694 c 64.609 306.639 64.965 306.608 65.316 306.608 c 68.516 306.608
 71.332 308.928 71.859 312.19 c 78.301 352.151 l 78.68 354.502 77.77 356.873
 75.918 358.37 c 74.066 359.866 71.555 360.252 69.336 359.385 c 31.637 344.647
 l 28.227 343.315 26.539 339.467 27.875 336.053 c 29.207 332.643 33.059
330.955 36.469 332.291 c 48.297 336.913 l 17.027 300.022 0 253.795 0 204.799
 c 0 150.096 21.301 98.666 59.984 59.987 c 98.668 21.303 150.098 -0.002
204.801 -0.002 c 246.844 -0.002 287.242 12.647 321.633 36.573 c 324.641
38.666 325.383 42.799 323.289 45.807 c h
323.289 45.807 m f
Q Q
showpage
%%Trailer
end restore
%%EOF
