%!PS-Adobe-3.0 EPSF-3.0
%%Creator: cairo 1.14.2 (http://cairographics.org)
%%CreationDate: Tue Feb 27 07:19:52 2018
%%Pages: 1
%%DocumentData: Clean7Bit
%%LanguageLevel: 2
%%BoundingBox: 0 -1 410 410
%%EndComments
%%BeginProlog
save
50 dict begin
/q { gsave } bind def
/Q { grestore } bind def
/cm { 6 array astore concat } bind def
/w { setlinewidth } bind def
/J { setlinecap } bind def
/j { setlinejoin } bind def
/M { setmiterlimit } bind def
/d { setdash } bind def
/m { moveto } bind def
/l { lineto } bind def
/c { curveto } bind def
/h { closepath } bind def
/re { exch dup neg 3 1 roll 5 3 roll moveto 0 rlineto
      0 exch rlineto 0 rlineto closepath } bind def
/S { stroke } bind def
/f { fill } bind def
/f* { eofill } bind def
/n { newpath } bind def
/W { clip } bind def
/W* { eoclip } bind def
/BT { } bind def
/ET { } bind def
/pdfmark where { pop globaldict /?pdfmark /exec load put }
    { globaldict begin /?pdfmark /pop load def /pdfmark
    /cleartomark load def end } ifelse
/BDC { mark 3 1 roll /BDC pdfmark } bind def
/EMC { mark /EMC pdfmark } bind def
/cairo_store_point { /cairo_point_y exch def /cairo_point_x exch def } def
/Tj { show currentpoint cairo_store_point } bind def
/TJ {
  {
    dup
    userType /stringtype eq
    { show } { -0.001 mul 0 cairo_font_matrix dtransform rmoveto } ifelse
  } forall
  currentpoint cairo_store_point
} bind def
/cairo_selectfont { cairo_font_matrix aload pop pop pop 0 0 6 array astore
    cairo_font exch selectfont cairo_point_x cairo_point_y moveto } bind def
/Tf { pop /cairo_font exch def /cairo_font_matrix where
      { pop cairo_selectfont } if } bind def
/Td { matrix translate cairo_font_matrix matrix concatmatrix dup
      /cairo_font_matrix exch def dup 4 get exch 5 get cairo_store_point
      /cairo_font where { pop cairo_selectfont } if } bind def
/Tm { 2 copy 8 2 roll 6 array astore /cairo_font_matrix exch def
      cairo_store_point /cairo_font where { pop cairo_selectfont } if } bind def
/g { setgray } bind def
/rg { setrgbcolor } bind def
/d1 { setcachedevice } bind def
%%EndProlog
%%BeginSetup
%%EndSetup
%%Page: 1 1
%%BeginPageSetup
%%PageBoundingBox: 0 -1 410 410
%%EndPageSetup
q 0 -1 410 411 rectclip q
0 g
6.871 232.108 m 20.523 232.108 l 24.293 232.108 27.352 235.166 27.352 238.932
 c 27.352 242.702 24.293 245.76 20.523 245.76 c 6.871 245.76 l 3.102 245.76
 0.043 242.702 0.043 238.932 c 0.043 235.166 3.102 232.108 6.871 232.108
 c h
6.871 232.108 m f
353.66 339.959 m 319.172 374.448 273.82 394.088 225.324 395.784 c 225.324
 402.772 l 225.324 406.541 222.266 409.6 218.5 409.6 c 214.73 409.6 211.672
 406.541 211.672 402.772 c 211.672 395.784 l 163.176 394.092 117.824 374.448
 83.336 339.963 c 62.938 319.565 47.77 295.526 38.242 268.514 c 36.984 264.955
 38.855 261.061 42.41 259.803 c 45.957 258.538 49.867 260.409 51.117 263.967
 c 59.965 289.049 74.055 311.366 92.992 330.307 c 126.516 363.827 171.086
 382.291 218.5 382.291 c 265.91 382.291 310.48 363.827 344.008 330.307 c
 413.207 261.1 413.207 148.495 344.012 79.291 c 334.422 69.702 323.902 61.393
 312.699 54.346 c 312.133 54.229 311.559 54.163 311.02 53.897 c 310.039
53.405 309.289 52.674 308.672 51.854 c 281.645 35.854 250.734 27.307 218.5
 27.307 c 186.266 27.307 155.352 35.858 128.32 51.862 c 127.703 52.678 126.953
 53.405 125.977 53.897 c 125.445 54.163 124.871 54.225 124.312 54.338 c
113.109 61.393 102.582 69.698 92.992 79.291 c 74.039 98.241 59.941 120.573
 51.102 145.647 c 49.848 149.202 45.949 151.073 42.391 149.819 c 38.836
148.561 36.973 144.663 38.227 141.104 c 47.75 114.084 62.934 90.041 83.336
 69.639 c 92.738 60.237 102.957 51.963 113.82 44.83 c 96.336 9.877 l 94.648
 6.506 96.02 2.409 99.395 0.713 c 100.371 0.229 101.414 -0.002 102.438 -0.002
 c 104.945 -0.002 107.355 1.377 108.555 3.772 c 125.539 37.745 l 153.645
 22.041 185.418 13.651 218.5 13.651 c 251.582 13.651 283.352 22.041 311.465
 37.737 c 328.441 3.776 l 329.645 1.377 332.055 -0.002 334.559 -0.002 c
335.582 -0.002 336.629 0.233 337.602 0.717 c 340.977 2.409 342.348 6.506
 340.66 9.877 c 323.188 44.823 l 334.039 51.963 344.266 60.237 353.668 69.639
 c 428.188 144.166 428.188 265.428 353.66 339.959 c h
353.66 339.959 m f
13.699 204.799 m 13.699 201.034 16.758 197.975 20.523 197.975 c 56.258
197.975 l 41.98 174.182 l 40.711 172.073 40.676 169.444 41.895 167.299 c
 43.102 165.163 45.375 163.838 47.832 163.838 c 109.273 163.838 l 111.348
 163.838 113.305 164.784 114.605 166.401 c 139.863 197.975 l 156.156 197.975
 l 156.465 197.932 156.746 197.791 157.066 197.791 c 157.086 197.791 l 157.406
 197.791 157.672 197.932 157.98 197.975 c 218.5 197.975 l 222.266 197.975
 225.324 201.034 225.324 204.799 c 225.324 208.569 222.266 211.627 218.5
 211.627 c 206.734 211.627 l 207.324 212.635 208 213.608 208.844 214.452
 c 211.426 217.034 214.852 218.455 218.5 218.455 c 222.145 218.455 225.57
 217.034 228.152 214.452 c 230.73 211.873 232.152 208.444 232.152 204.799
 c 232.152 201.147 230.73 197.721 228.16 195.147 c 225.586 192.565 222.152
 191.147 218.5 191.147 c 214.723 191.147 211.672 188.088 211.672 184.323
 c 211.672 180.545 214.73 177.495 218.5 177.495 c 225.797 177.495 232.656
 180.342 237.812 185.491 c 248.461 196.131 248.453 213.463 237.805 224.108
 c 232.648 229.26 225.797 232.108 218.5 232.108 c 211.207 232.108 204.348
 229.26 199.188 224.108 c 195.691 220.604 193.363 216.299 192.168 211.627
 c 164.363 211.627 l 165.844 223.623 171.191 234.721 179.879 243.42 c 201.18
 264.698 235.824 264.705 257.117 243.42 c 278.41 222.12 278.41 187.475 257.117
 166.182 c 235.824 144.893 201.172 144.893 179.879 166.182 c 175.465 170.6
 171.879 175.659 169.219 181.229 c 167.586 184.627 163.496 186.061 160.109
 184.444 c 156.711 182.811 155.27 178.737 156.902 175.338 c 160.227 168.373
 164.711 162.045 170.227 156.53 c 183.539 143.217 201.016 136.569 218.5
136.569 c 235.98 136.569 253.465 143.217 266.77 156.53 c 293.387 183.139
 293.387 226.448 266.77 253.073 c 240.152 279.682 196.844 279.682 170.227
 253.073 c 158.949 241.788 152.117 227.276 150.578 211.627 c 139.855 211.627
 l 126.051 228.877 l 130.32 245.299 138.832 260.295 150.922 272.377 c 168.973
 290.428 192.969 300.373 218.5 300.373 c 244.031 300.373 268.027 290.428
 286.074 272.377 c 323.34 235.112 323.34 174.483 286.074 137.217 c 268.027
 119.166 244.031 109.229 218.5 109.229 c 192.969 109.229 168.973 119.174
 150.922 137.225 c 144.723 143.416 139.426 150.385 135.172 157.936 c 133.324
 161.221 129.172 162.389 125.875 160.538 c 122.594 158.686 121.43 154.522
 123.273 151.241 c 128.141 142.612 134.191 134.643 141.27 127.573 c 161.895
 106.94 189.324 95.573 218.5 95.573 c 247.676 95.573 275.105 106.932 295.73
 127.565 c 338.32 170.147 338.32 239.448 295.73 282.03 c 275.105 302.663
 247.676 314.03 218.5 314.03 c 189.324 314.03 161.895 302.663 141.27 282.03
 c 129.812 270.577 121.164 256.827 115.75 241.768 c 114.602 243.202 l 113.305
 244.819 111.348 245.76 109.27 245.76 c 88.238 245.76 l 94.801 266.651 106.336
 285.725 121.957 301.342 c 147.746 327.127 182.031 341.334 218.496 341.334
 c 254.965 341.334 289.25 327.127 315.039 301.342 c 368.266 248.108 368.273
 161.491 315.047 108.252 c 289.258 82.467 254.973 68.268 218.504 68.268
c 182.035 68.268 147.746 82.471 121.957 108.256 c 110.758 119.452 101.688
 132.323 94.996 146.506 c 93.387 149.913 89.316 151.366 85.91 149.764 c
82.496 148.159 81.035 144.088 82.648 140.674 c 90.012 125.069 99.992 110.913
 112.301 98.604 c 140.676 70.237 178.391 54.612 218.504 54.612 c 258.617
 54.612 296.336 70.237 324.699 98.596 c 383.254 157.155 383.254 252.44 324.695
 310.995 c 296.328 339.358 258.609 354.987 218.496 354.987 c 178.383 354.987
 140.668 339.358 112.301 310.995 c 94.113 292.807 81.023 270.327 74.066
245.76 c 47.832 245.76 l 45.375 245.76 43.102 244.436 41.891 242.299 c 40.676
 240.155 40.711 237.526 41.98 235.416 c 56.254 211.627 l 20.523 211.627
l 16.758 211.627 13.699 208.569 13.699 204.799 c h
102.445 211.627 m 72.176 211.627 l 59.887 232.108 l 105.996 232.108 l 127.832
 204.799 l 105.996 177.495 l 59.887 177.495 l 72.176 197.975 l 102.445 197.975
 l 106.211 197.975 109.27 201.034 109.27 204.799 c 109.27 208.569 106.211
 211.627 102.445 211.627 c h
102.445 211.627 m f
20.523 177.495 m 6.871 177.495 l 3.102 177.495 0.043 174.436 0.043 170.666
 c 0.043 166.901 3.102 163.842 6.871 163.842 c 20.523 163.842 l 24.293 163.842
 27.352 166.901 27.352 170.666 c 27.352 174.436 24.293 177.495 20.523 177.495
 c h
20.523 177.495 m f
Q Q
showpage
%%Trailer
end restore
%%EOF
